…
Searching foodnetwork for recipes... Please wait.
Your query has been rate limited. Estimated run time: 255 seconds
140.11 sec elapsed
Search complete: 373 recipe URLs obtained.
Obtaining recipe data.
Your request is large and has been rate limited. Estimated run time: 1492 seconds
✓ Recipes successfully saved in your working directory.
1357.33 sec elapsed
```

The data is now saved as a csv file. Upon reading into R, this is the data structure:

```r
# A tibble: 373 × 9
   title                                                   rating n_ratings date  n_ingredients n_directions ingredients directions URL  
   <chr>                                                    <dbl> <chr>     <chr>         <dbl>        <dbl> <chr>       <chr>      <chr>
 1 Air Fryer Hoisin Glazed Chicken Thighs                     5   3 ratings Apri…             9            4 "½ cup hoi… "Step 1 W… http…
 2 Guy’s Citrus Chicken                                       5   2 ratings Apri…            17            5 "4 lb(s) b… "Step 1 C… http…
 3 This Healthy Sriracha-Honey Oven-Fried Chicken is Simp…    4.6 11 ratin… Octo…             9            7 "2 cups al… "Step 1 P… http…
 4 Traditional Acadian Chicken Fricot                         4.8 205 rati… Dece…            14           10 "3 lb whol… "Step 1 I… http…
 5 Crispy Chicken Thighs Over Vinegar Beans                   5   3 ratings Apri…            14            4 "6 bone-in… "Step 1 P… http…
 6 Easiest Ever Air Fryer Whole Chicken                       5   2 ratings Apri…             9            7 "1 3-4 lb … "Step 1 P… http…
 7 Oven-Fried Honey Garlic Chicken Bites                      4.9 11 ratin… Janu…            14            7 "1 lb bone… "Step 1 P… http…
 8 This Chicken Caesar Salad Burger is the Best of Both W…    5   6 ratings Augu…            16            5 "1 lb grou… "Step 1 F… http…
 9 Spicy Fried Chicken Sandwich (AKA Nima Sandwich)           4.3 3 ratings May …            18           13 "1 cup but… "Step 1 F… http…
10 West Indian Curry Chicken Poutine is a Must-Try            5   1 ratings Febr…            15            9 "1 ½ lbs f… "Step 1 P… http…
# ℹ 363 more rows
```
…
